…
tidy_data = tidy_data[tidy_data$city_state != "Tulsa, AL", ] 

tidy_data
```

    ## # A tibble: 50 × 3
    ##    city_state      total_homicides unsolved_homicides
    ##    <chr>                     <int>              <int>
    ##  1 Albuquerque, NM             378                146
    ##  2 Atlanta, GA                 973                373
    ##  3 Baltimore, MD              2827               1825
    ##  4 Baton Rouge, LA             424                196
    ##  5 Birmingham, AL              800                347
    ##  6 Boston, MA                  614                310
    ##  7 Buffalo, NY                 521                319
    ##  8 Charlotte, NC               687                206
    ##  9 Chicago, IL                5535               4073
    ## 10 Cincinnati, OH              694                309
    ## # ℹ 40 more rows
…
city_tidy_df = city_df |> 
  mutate(confidence_intervals = paste(conf.low, conf.high, sep = ", ")) |> 
  rename(estimated_proportion = estimate) |> 
  select(city_state, estimated_proportion, confidence_intervals)

city_tidy_df
```

    ## # A tibble: 50 × 3
    ##    city_state      estimated_proportion confidence_intervals                
    ##    <chr>                          <dbl> <chr>                               
    ##  1 Albuquerque, NM                0.386 0.337260384254284, 0.437576606555521
    ##  2 Atlanta, GA                    0.383 0.352811897036302, 0.414821883953622
    ##  3 Baltimore, MD                  0.646 0.627562457662644, 0.663159860401662
    ##  4 Baton Rouge, LA                0.462 0.414198741860307, 0.511023960018796
    ##  5 Birmingham, AL                 0.434 0.399188948632167, 0.468955748189036
    ##  6 Boston, MA                     0.505 0.464621930200304, 0.545088051772638
    ##  7 Buffalo, NY                    0.612 0.568798964634228, 0.654087939253532
    ##  8 Charlotte, NC                  0.300 0.26608198188312, 0.335899860867845 
    ##  9 Chicago, IL                    0.736 0.723995888425454, 0.747399787306647
    ## 10 Cincinnati, OH                 0.445 0.407960574220688, 0.483143880618937
    ## # ℹ 40 more rows
…
